%YAML 1.1
%TAG !u! tag:unity3d.com,2011:
--- !u!114 &11400000
MonoBehaviour:
  m_ObjectHideFlags: 0
  m_CorrespondingSourceObject: {fileID: 0}
  m_PrefabInstance: {fileID: 0}
  m_PrefabAsset: {fileID: 0}
  m_GameObject: {fileID: 0}
  m_Enabled: 1
  m_EditorHideFlags: 0
  m_Script: {fileID: 11500000, guid: c7f2ef4c68ea0a9458250ff77379cc9e, type: 3}
  m_Name: WizardSpecialization
  m_EditorClassIdentifier: 
  resourceName: Wizard
  displayName: 
  icon: {fileID: 21300000, guid: 8b04cac8505abbb47bd5c91db3229c44, type: 3}
  iconBackgroundImage: {fileID: 0}
  description: 
  useRegionalDescription: 0
  resourceDescriptionProfile: 
  newGameOption: 0
  equipmentNames: []
  classNames:
  - Magic
  capabilities:
    abilityNames:
    - Ice Projectile
    - Ice Shards
    - Blizzard
    - Fire Projectile
    - Ring Of Fire
    - Meteor Shower
    - Tornado
    - Life Drain
    - Revive Enemy
    - Fly
    - Glide
    traitNames: []
    armorClassList: []
    weaponSkills: []
  primaryStats: []
  powerResources: []
  powerEnhancerStats: []
