%YAML 1.1
%TAG !u! tag:unity3d.com,2011:
--- !u!114 &11400000
MonoBehaviour:
  m_ObjectHideFlags: 0
  m_CorrespondingSourceObject: {fileID: 0}
  m_PrefabInstance: {fileID: 0}
  m_PrefabAsset: {fileID: 0}
  m_GameObject: {fileID: 0}
  m_Enabled: 1
  m_EditorHideFlags: 0
  m_Script: {fileID: 11500000, guid: 0afae87fb48948142aec41956a8be083, type: 3}
  m_Name: HumanoidAttachment
  m_EditorClassIdentifier: 
  resourceName: Humanoid
  displayName: 
  icon: {fileID: 0}
  iconBackgroundImage: {fileID: 0}
  description: 
  useRegionalDescription: 0
  resourceDescriptionProfile: 
  attachmentPointNodes:
  - nodeName: Left Hand
    position: {x: 0, y: 0, z: 0}
    rotationIsGlobal: 0
    rotation: {x: 0, y: 0, z: 0}
    scale: {x: 1, y: 1, z: 1}
    targetBone: LeftHandAttachment
  - nodeName: Right Hand
    position: {x: 0, y: 0, z: 0}
    rotationIsGlobal: 0
    rotation: {x: 0, y: 0, z: 0}
    scale: {x: 1, y: 1, z: 1}
    targetBone: RightHandAttachment
  - nodeName: One Hand Sword Sheathed
    position: {x: 0, y: 0, z: 0}
    rotationIsGlobal: 0
    rotation: {x: 0, y: 0, z: 0}
    scale: {x: 1, y: 1, z: 1}
    targetBone: OneHandSwordSheathedAttachment
  - nodeName: Bow Sheathed
    position: {x: 0, y: 0, z: 0}
    rotationIsGlobal: 0
    rotation: {x: 0, y: 0, z: 0}
    scale: {x: 1, y: 1, z: 1}
    targetBone: BowSheathedAttachment
  - nodeName: Bow
    position: {x: 0, y: 0, z: 0}
    rotationIsGlobal: 0
    rotation: {x: 0, y: 0, z: 0}
    scale: {x: 1, y: 1, z: 1}
    targetBone: LeftHandAttachment
  - nodeName: Quiver
    position: {x: 0, y: 0, z: 0}
    rotationIsGlobal: 0
    rotation: {x: 0, y: 0, z: 0}
    scale: {x: 1, y: 1, z: 1}
    targetBone: QuiverAttachment
  - nodeName: Shield
    position: {x: 0, y: 0, z: 0}
    rotationIsGlobal: 0
    rotation: {x: 0, y: 0, z: 0}
    scale: {x: 1, y: 1, z: 1}
    targetBone: ShieldAttachment
  - nodeName: Shield Sheathed
    position: {x: 0, y: 0, z: 0}
    rotationIsGlobal: 0
    rotation: {x: 0, y: 0, z: 0}
    scale: {x: 1, y: 1, z: 1}
    targetBone: ShieldSheathedAttachment
  - nodeName: Fist Main Hand Sheathed
    position: {x: 0, y: 0, z: 0}
    rotationIsGlobal: 0
    rotation: {x: 0, y: 0, z: 0}
    scale: {x: 1, y: 1, z: 1}
    targetBone: MainHandFistSheathedAttachment
  - nodeName: Fist Off Hand Sheathed
    position: {x: 0, y: 0, z: 0}
    rotationIsGlobal: 0
    rotation: {x: 0, y: 0, z: 0}
    scale: {x: 1, y: 1, z: 1}
    targetBone: OffHandFistSheathedAttachment
  - nodeName: Staff Sheathed
    position: {x: 0, y: 0, z: 0}
    rotationIsGlobal: 0
    rotation: {x: 0, y: 0, z: 0}
    scale: {x: 1, y: 1, z: 1}
    targetBone: StaffSheathedAttachment
  - nodeName: Two Hand Axe Sheathed
    position: {x: 0, y: 0, z: 0}
    rotationIsGlobal: 0
    rotation: {x: 0, y: 0, z: 0}
    scale: {x: 1, y: 1, z: 1}
    targetBone: TwoHandAxeSheathedAttachment
  - nodeName: Two Hand Mace Sheathed
    position: {x: 0, y: 0, z: 0}
    rotationIsGlobal: 0
    rotation: {x: 0, y: 0, z: 0}
    scale: {x: 1, y: 1, z: 1}
    targetBone: TwoHandMaceSheathedAttachment
  - nodeName: Two Hand Sword Sheathed
    position: {x: 0, y: 0, z: 0}
    rotationIsGlobal: 0
    rotation: {x: 0, y: 0, z: 0}
    scale: {x: 1, y: 1, z: 1}
    targetBone: TwoHandSwordSheathedAttachment
  - nodeName: Wings
    position: {x: 0, y: 0, z: 0}
    rotationIsGlobal: 1
    rotation: {x: 0, y: 0, z: 0}
    scale: {x: 1, y: 1, z: 1}
    targetBone: TwoHandSwordSheathedAttachment
  - nodeName: Main Hand Sword Sheathed
    position: {x: 0, y: 0, z: 0}
    rotationIsGlobal: 0
    rotation: {x: 0, y: 0, z: 0}
    scale: {x: 1, y: 1, z: 1}
    targetBone: MainHandSwordSheathedAttachment
  - nodeName: Off Hand Sword Sheathed
    position: {x: 0, y: 0, z: 0}
    rotationIsGlobal: 0
    rotation: {x: 0, y: 0, z: 0}
    scale: {x: 1, y: 1, z: 1}
    targetBone: OffHandSwordSheathedAttachment
  - nodeName: One Hand Mace Sheathed
    position: {x: 0, y: 0, z: 0}
    rotationIsGlobal: 0
    rotation: {x: 0, y: 0, z: 0}
    scale: {x: 1, y: 1, z: 1}
    targetBone: OneHandMaceSheathedAttachment
  - nodeName: Main Hand Dagger Sheathed
    position: {x: 0, y: 0, z: 0}
    rotationIsGlobal: 0
    rotation: {x: 0, y: 0, z: 0}
    scale: {x: 1, y: 1, z: 1}
    targetBone: MainHandDaggerSheathedAttachment
  - nodeName: SpellSource
    position: {x: 0, y: 0, z: 0}
    rotationIsGlobal: 0
    rotation: {x: 0, y: 0, z: 0}
    scale: {x: 1, y: 1, z: 1}
    targetBone: SpellSourceAttachment
  - nodeName: Head
    position: {x: 0, y: 0, z: 0}
    rotationIsGlobal: 0
    rotation: {x: 0, y: 0, z: 0}
    scale: {x: 1, y: 1, z: 1}
    targetBone: Head
