%YAML 1.1
%TAG !u! tag:unity3d.com,2011:
--- !u!1 &2382909202382707832
GameObject:
  m_ObjectHideFlags: 0
  m_CorrespondingSourceObject: {fileID: 0}
  m_PrefabInstance: {fileID: 0}
  m_PrefabAsset: {fileID: 0}
  serializedVersion: 6
  m_Component:
  - component: {fileID: 2382909202382707813}
  - component: {fileID: 2382909202382707812}
  - component: {fileID: 3989129407494939074}
  - component: {fileID: 448085137886778510}
  m_Layer: 5
  m_Name: ConfirmCopyGamePanel
  m_TagString: Untagged
  m_Icon: {fileID: 0}
  m_NavMeshLayer: 0
  m_StaticEditorFlags: 0
  m_IsActive: 1
--- !u!224 &2382909202382707813
RectTransform:
  m_ObjectHideFlags: 0
  m_CorrespondingSourceObject: {fileID: 0}
  m_PrefabInstance: {fileID: 0}
  m_PrefabAsset: {fileID: 0}
  m_GameObject: {fileID: 2382909202382707832}
  m_LocalRotation: {x: 0, y: 0, z: 0, w: 1}
  m_LocalPosition: {x: 0, y: 0, z: 0}
  m_LocalScale: {x: 1, y: 1, z: 1}
  m_Children:
  - {fileID: 2382909202413983838}
  - {fileID: 2382909202718761582}
  - {fileID: 2382909202508512139}
  - {fileID: 2382909202454689210}
  m_Father: {fileID: 0}
  m_RootOrder: 0
  m_LocalEulerAnglesHint: {x: 0, y: 0, z: 0}
  m_AnchorMin: {x: 0.5, y: 0.5}
  m_AnchorMax: {x: 0.5, y: 0.5}
  m_AnchoredPosition: {x: 0, y: 0}
  m_SizeDelta: {x: 650, y: 500}
  m_Pivot: {x: 0.5, y: 0.5}
--- !u!222 &2382909202382707812
CanvasRenderer:
  m_ObjectHideFlags: 0
  m_CorrespondingSourceObject: {fileID: 0}
  m_PrefabInstance: {fileID: 0}
  m_PrefabAsset: {fileID: 0}
  m_GameObject: {fileID: 2382909202382707832}
  m_CullTransparentMesh: 0
--- !u!114 &3989129407494939074
MonoBehaviour:
  m_ObjectHideFlags: 0
  m_CorrespondingSourceObject: {fileID: 0}
  m_PrefabInstance: {fileID: 0}
  m_PrefabAsset: {fileID: 0}
  m_GameObject: {fileID: 2382909202382707832}
  m_Enabled: 1
  m_EditorHideFlags: 0
  m_Script: {fileID: 11500000, guid: fe87c0e1cc204ed48ad3b37840f39efc, type: 3}
  m_Name: 
  m_EditorClassIdentifier: 
  m_Material: {fileID: 0}
  m_Color: {r: 0, g: 0, b: 0, a: 1}
  m_RaycastTarget: 1
  m_RaycastPadding: {x: 0, y: 0, z: 0, w: 0}
  m_Maskable: 1
  m_OnCullStateChanged:
    m_PersistentCalls:
      m_Calls: []
  m_Sprite: {fileID: 0}
  m_Type: 0
  m_PreserveAspect: 0
  m_FillCenter: 1
  m_FillMethod: 4
  m_FillAmount: 1
  m_FillClockwise: 1
  m_FillOrigin: 0
  m_UseSpriteMesh: 0
  m_PixelsPerUnitMultiplier: 1
--- !u!114 &448085137886778510
MonoBehaviour:
  m_ObjectHideFlags: 0
  m_CorrespondingSourceObject: {fileID: 0}
  m_PrefabInstance: {fileID: 0}
  m_PrefabAsset: {fileID: 0}
  m_GameObject: {fileID: 2382909202382707832}
  m_Enabled: 1
  m_EditorHideFlags: 0
  m_Script: {fileID: 11500000, guid: 547bfeb4309b164418fd53eb0e5ddd89, type: 3}
  m_Name: 
  m_EditorClassIdentifier: 
  backGroundImage: {fileID: 0}
  coloredUIElements:
  - {fileID: 6206480088388330187}
  noButton: {fileID: 5441643793853888772}
  yesButton: {fileID: 4237624683138131053}
--- !u!1 &2382909202413983825
GameObject:
  m_ObjectHideFlags: 0
  m_CorrespondingSourceObject: {fileID: 0}
  m_PrefabInstance: {fileID: 0}
  m_PrefabAsset: {fileID: 0}
  serializedVersion: 6
  m_Component:
  - component: {fileID: 2382909202413983838}
  - component: {fileID: 2382909202413983834}
  - component: {fileID: 2382909202413983836}
  - component: {fileID: 5903586500235375704}
  m_Layer: 0
  m_Name: Text
  m_TagString: Untagged
  m_Icon: {fileID: 0}
  m_NavMeshLayer: 0
  m_StaticEditorFlags: 0
  m_IsActive: 1
--- !u!224 &2382909202413983838
RectTransform:
  m_ObjectHideFlags: 0
  m_CorrespondingSourceObject: {fileID: 0}
  m_PrefabInstance: {fileID: 0}
  m_PrefabAsset: {fileID: 0}
  m_GameObject: {fileID: 2382909202413983825}
  m_LocalRotation: {x: -0, y: -0, z: -0, w: 1}
  m_LocalPosition: {x: 0, y: 0, z: 0.000017833}
  m_LocalScale: {x: 1, y: 1, z: 1}
  m_Children: []
  m_Father: {fileID: 2382909202382707813}
  m_RootOrder: 0
  m_LocalEulerAnglesHint: {x: 0, y: 0, z: 0}
  m_AnchorMin: {x: 0, y: 0}
  m_AnchorMax: {x: 1, y: 1}
  m_AnchoredPosition: {x: 0, y: 127.7}
  m_SizeDelta: {x: 0, y: -255.4}
  m_Pivot: {x: 0.5, y: 0.5}
--- !u!33 &2382909202413983834
MeshFilter:
  m_ObjectHideFlags: 0
  m_CorrespondingSourceObject: {fileID: 0}
  m_PrefabInstance: {fileID: 0}
  m_PrefabAsset: {fileID: 0}
  m_GameObject: {fileID: 2382909202413983825}
  m_Mesh: {fileID: 0}
--- !u!222 &2382909202413983836
CanvasRenderer:
  m_ObjectHideFlags: 0
  m_CorrespondingSourceObject: {fileID: 0}
  m_PrefabInstance: {fileID: 0}
  m_PrefabAsset: {fileID: 0}
  m_GameObject: {fileID: 2382909202413983825}
  m_CullTransparentMesh: 0
--- !u!114 &5903586500235375704
MonoBehaviour:
  m_ObjectHideFlags: 0
  m_CorrespondingSourceObject: {fileID: 0}
  m_PrefabInstance: {fileID: 0}
  m_PrefabAsset: {fileID: 0}
  m_GameObject: {fileID: 2382909202413983825}
  m_Enabled: 1
  m_EditorHideFlags: 0
  m_Script: {fileID: 11500000, guid: f4688fdb7df04437aeb418b961361dc5, type: 3}
  m_Name: 
  m_EditorClassIdentifier: 
  m_Material: {fileID: 0}
  m_Color: {r: 1, g: 1, b: 1, a: 1}
  m_RaycastTarget: 0
  m_RaycastPadding: {x: 0, y: 0, z: 0, w: 0}
  m_Maskable: 0
  m_OnCullStateChanged:
    m_PersistentCalls:
      m_Calls: []
  m_text: Are you sure you want to copy this game?
  m_isRightToLeft: 0
  m_fontAsset: {fileID: 11400000, guid: 8f586378b4e144a9851e7b34d9b748ee, type: 2}
  m_sharedMaterial: {fileID: 2180264, guid: 8f586378b4e144a9851e7b34d9b748ee, type: 2}
  m_fontSharedMaterials: []
  m_fontMaterial: {fileID: 0}
  m_fontMaterials: []
  m_fontColor32:
    serializedVersion: 2
    rgba: 4294967295
  m_fontColor: {r: 1, g: 1, b: 1, a: 1}
  m_enableVertexGradient: 0
  m_colorMode: 3
  m_fontColorGradient:
    topLeft: {r: 1, g: 1, b: 1, a: 1}
    topRight: {r: 1, g: 1, b: 1, a: 1}
    bottomLeft: {r: 1, g: 1, b: 1, a: 1}
    bottomRight: {r: 1, g: 1, b: 1, a: 1}
  m_fontColorGradientPreset: {fileID: 0}
  m_spriteAsset: {fileID: 0}
  m_tintAllSprites: 0
  m_StyleSheet: {fileID: 0}
  m_TextStyleHashCode: -1183493901
  m_overrideHtmlColors: 0
  m_faceColor:
    serializedVersion: 2
    rgba: 4294967295
  m_fontSize: 40.2
  m_fontSizeBase: 40.2
  m_fontWeight: 400
  m_enableAutoSizing: 0
  m_fontSizeMin: 18
  m_fontSizeMax: 72
  m_fontStyle: 1
  m_HorizontalAlignment: 2
  m_VerticalAlignment: 512
  m_textAlignment: 65535
  m_characterSpacing: 0
  m_wordSpacing: 0
  m_lineSpacing: 0
  m_lineSpacingMax: 0
  m_paragraphSpacing: 0
  m_charWidthMaxAdj: 0
  m_enableWordWrapping: 1
  m_wordWrappingRatios: 0.4
  m_overflowMode: 0
  m_linkedTextComponent: {fileID: 0}
  parentLinkedComponent: {fileID: 0}
  m_enableKerning: 1
  m_enableExtraPadding: 0
  checkPaddingRequired: 0
  m_isRichText: 0
  m_parseCtrlCharacters: 1
  m_isOrthographic: 1
  m_isCullingEnabled: 0
  m_horizontalMapping: 0
  m_verticalMapping: 0
  m_uvLineOffset: 0
  m_geometrySortingOrder: 0
  m_IsTextObjectScaleStatic: 0
  m_VertexBufferAutoSizeReduction: 1
  m_useMaxVisibleDescender: 1
  m_pageToDisplay: 1
  m_margin: {x: 0, y: 0, z: 0, w: 0}
  m_isUsingLegacyAnimationComponent: 0
  m_isVolumetricText: 0
  m_hasFontAssetChanged: 0
  m_baseMaterial: {fileID: 0}
  m_maskOffset: {x: 0, y: 0, z: 0, w: 0}
--- !u!1 &2382909202454689213
GameObject:
  m_ObjectHideFlags: 0
  m_CorrespondingSourceObject: {fileID: 0}
  m_PrefabInstance: {fileID: 0}
  m_PrefabAsset: {fileID: 0}
  serializedVersion: 6
  m_Component:
  - component: {fileID: 2382909202454689210}
  - component: {fileID: 2382909202454689208}
  - component: {fileID: 2382909202454689211}
  - component: {fileID: 6206480088388330187}
  m_Layer: 5
  m_Name: Divider
  m_TagString: Untagged
  m_Icon: {fileID: 0}
  m_NavMeshLayer: 0
  m_StaticEditorFlags: 0
  m_IsActive: 1
--- !u!224 &2382909202454689210
RectTransform:
  m_ObjectHideFlags: 0
  m_CorrespondingSourceObject: {fileID: 0}
  m_PrefabInstance: {fileID: 0}
  m_PrefabAsset: {fileID: 0}
  m_GameObject: {fileID: 2382909202454689213}
  m_LocalRotation: {x: -0, y: -0, z: -0.0000005960464, w: -1}
  m_LocalPosition: {x: 0, y: 0, z: 0}
  m_LocalScale: {x: 1, y: 1, z: 1}
  m_Children: []
  m_Father: {fileID: 2382909202382707813}
  m_RootOrder: 3
  m_LocalEulerAnglesHint: {x: 0, y: 0, z: 0}
  m_AnchorMin: {x: 0.5, y: 0.5}
  m_AnchorMax: {x: 0.5, y: 0.5}
  m_AnchoredPosition: {x: -2.5, y: -45.299694}
  m_SizeDelta: {x: 105.86, y: 8}
  m_Pivot: {x: 0.5, y: 0.5}
--- !u!222 &2382909202454689208
CanvasRenderer:
  m_ObjectHideFlags: 0
  m_CorrespondingSourceObject: {fileID: 0}
  m_PrefabInstance: {fileID: 0}
  m_PrefabAsset: {fileID: 0}
  m_GameObject: {fileID: 2382909202454689213}
  m_CullTransparentMesh: 0
--- !u!114 &2382909202454689211
MonoBehaviour:
  m_ObjectHideFlags: 0
  m_CorrespondingSourceObject: {fileID: 0}
  m_PrefabInstance: {fileID: 0}
  m_PrefabAsset: {fileID: 0}
  m_GameObject: {fileID: 2382909202454689213}
  m_Enabled: 1
  m_EditorHideFlags: 0
  m_Script: {fileID: 11500000, guid: fe87c0e1cc204ed48ad3b37840f39efc, type: 3}
  m_Name: 
  m_EditorClassIdentifier: 
  m_Material: {fileID: 0}
  m_Color: {r: 1, g: 1, b: 1, a: 0.172}
  m_RaycastTarget: 0
  m_RaycastPadding: {x: 0, y: 0, z: 0, w: 0}
  m_Maskable: 0
  m_OnCullStateChanged:
    m_PersistentCalls:
      m_Calls: []
  m_Sprite: {fileID: 21300000, guid: df9f9c75945a6ee46851e02713e8aaa7, type: 3}
  m_Type: 0
  m_PreserveAspect: 0
  m_FillCenter: 1
  m_FillMethod: 4
  m_FillAmount: 1
  m_FillClockwise: 1
  m_FillOrigin: 0
  m_UseSpriteMesh: 0
  m_PixelsPerUnitMultiplier: 1
--- !u!114 &6206480088388330187
MonoBehaviour:
  m_ObjectHideFlags: 0
  m_CorrespondingSourceObject: {fileID: 0}
  m_PrefabInstance: {fileID: 0}
  m_PrefabAsset: {fileID: 0}
  m_GameObject: {fileID: 2382909202454689213}
  m_Enabled: 1
  m_EditorHideFlags: 0
  m_Script: {fileID: 11500000, guid: 46a187c9735000c469c26ab70f3ef54a, type: 3}
  m_Name: 
  m_EditorClassIdentifier: 
--- !u!1001 &1856311716687656352
PrefabInstance:
  m_ObjectHideFlags: 0
  serializedVersion: 2
  m_Modification:
    m_TransformParent: {fileID: 2382909202382707813}
    m_Modifications:
    - target: {fileID: 4094681222668588993, guid: c28b4bc6e06f1834a84c9bf9261b1743,
        type: 3}
      propertyPath: m_Name
      value: ConfirmCopyGameBtn_No
      objectReference: {fileID: 0}
    - target: {fileID: 4094681222668589004, guid: c28b4bc6e06f1834a84c9bf9261b1743,
        type: 3}
      propertyPath: m_OnClick.m_PersistentCalls.m_Calls.Array.size
      value: 1
      objectReference: {fileID: 0}
    - target: {fileID: 4094681222668589004, guid: c28b4bc6e06f1834a84c9bf9261b1743,
        type: 3}
      propertyPath: m_OnClick.m_PersistentCalls.m_Calls.Array.data[0].m_Target
      value: 
      objectReference: {fileID: 448085137886778510}
    - target: {fileID: 4094681222668589004, guid: c28b4bc6e06f1834a84c9bf9261b1743,
        type: 3}
      propertyPath: m_OnClick.m_PersistentCalls.m_Calls.Array.data[1].m_Target
      value: 
      objectReference: {fileID: 0}
    - target: {fileID: 4094681222668589004, guid: c28b4bc6e06f1834a84c9bf9261b1743,
        type: 3}
      propertyPath: m_OnClick.m_PersistentCalls.m_Calls.Array.data[0].m_MethodName
      value: CancelAction
      objectReference: {fileID: 0}
    - target: {fileID: 4094681222668589004, guid: c28b4bc6e06f1834a84c9bf9261b1743,
        type: 3}
      propertyPath: m_OnClick.m_PersistentCalls.m_Calls.Array.data[0].m_Arguments.m_StringArgument
      value: 
      objectReference: {fileID: 0}
    - target: {fileID: 4094681222668589006, guid: c28b4bc6e06f1834a84c9bf9261b1743,
        type: 3}
      propertyPath: m_Pivot.x
      value: 0.5
      objectReference: {fileID: 0}
    - target: {fileID: 4094681222668589006, guid: c28b4bc6e06f1834a84c9bf9261b1743,
        type: 3}
      propertyPath: m_Pivot.y
      value: 0.5
      objectReference: {fileID: 0}
    - target: {fileID: 4094681222668589006, guid: c28b4bc6e06f1834a84c9bf9261b1743,
        type: 3}
      propertyPath: m_RootOrder
      value: 1
      objectReference: {fileID: 0}
    - target: {fileID: 4094681222668589006, guid: c28b4bc6e06f1834a84c9bf9261b1743,
        type: 3}
      propertyPath: m_AnchorMax.x
      value: 0.5
      objectReference: {fileID: 0}
    - target: {fileID: 4094681222668589006, guid: c28b4bc6e06f1834a84c9bf9261b1743,
        type: 3}
      propertyPath: m_AnchorMax.y
      value: 0.5
      objectReference: {fileID: 0}
    - target: {fileID: 4094681222668589006, guid: c28b4bc6e06f1834a84c9bf9261b1743,
        type: 3}
      propertyPath: m_AnchorMin.x
      value: 0.5
      objectReference: {fileID: 0}
    - target: {fileID: 4094681222668589006, guid: c28b4bc6e06f1834a84c9bf9261b1743,
        type: 3}
      propertyPath: m_AnchorMin.y
      value: 0.5
      objectReference: {fileID: 0}
    - target: {fileID: 4094681222668589006, guid: c28b4bc6e06f1834a84c9bf9261b1743,
        type: 3}
      propertyPath: m_SizeDelta.x
      value: 233
      objectReference: {fileID: 0}
    - target: {fileID: 4094681222668589006, guid: c28b4bc6e06f1834a84c9bf9261b1743,
        type: 3}
      propertyPath: m_SizeDelta.y
      value: 104
      objectReference: {fileID: 0}
    - target: {fileID: 4094681222668589006, guid: c28b4bc6e06f1834a84c9bf9261b1743,
        type: 3}
      propertyPath: m_LocalPosition.x
      value: 0
      objectReference: {fileID: 0}
    - target: {fileID: 4094681222668589006, guid: c28b4bc6e06f1834a84c9bf9261b1743,
        type: 3}
      propertyPath: m_LocalPosition.y
      value: 0
      objectReference: {fileID: 0}
    - target: {fileID: 4094681222668589006, guid: c28b4bc6e06f1834a84c9bf9261b1743,
        type: 3}
      propertyPath: m_LocalPosition.z
      value: 0
      objectReference: {fileID: 0}
    - target: {fileID: 4094681222668589006, guid: c28b4bc6e06f1834a84c9bf9261b1743,
        type: 3}
      propertyPath: m_LocalRotation.w
      value: 1
      objectReference: {fileID: 0}
    - target: {fileID: 4094681222668589006, guid: c28b4bc6e06f1834a84c9bf9261b1743,
        type: 3}
      propertyPath: m_LocalRotation.x
      value: -0
      objectReference: {fileID: 0}
    - target: {fileID: 4094681222668589006, guid: c28b4bc6e06f1834a84c9bf9261b1743,
        type: 3}
      propertyPath: m_LocalRotation.y
      value: -0
      objectReference: {fileID: 0}
    - target: {fileID: 4094681222668589006, guid: c28b4bc6e06f1834a84c9bf9261b1743,
        type: 3}
      propertyPath: m_LocalRotation.z
      value: -0
      objectReference: {fileID: 0}
    - target: {fileID: 4094681222668589006, guid: c28b4bc6e06f1834a84c9bf9261b1743,
        type: 3}
      propertyPath: m_AnchoredPosition.x
      value: -161
      objectReference: {fileID: 0}
    - target: {fileID: 4094681222668589006, guid: c28b4bc6e06f1834a84c9bf9261b1743,
        type: 3}
      propertyPath: m_AnchoredPosition.y
      value: -139
      objectReference: {fileID: 0}
    - target: {fileID: 4094681222668589006, guid: c28b4bc6e06f1834a84c9bf9261b1743,
        type: 3}
      propertyPath: m_LocalEulerAnglesHint.x
      value: 0
      objectReference: {fileID: 0}
    - target: {fileID: 4094681222668589006, guid: c28b4bc6e06f1834a84c9bf9261b1743,
        type: 3}
      propertyPath: m_LocalEulerAnglesHint.y
      value: 0
      objectReference: {fileID: 0}
    - target: {fileID: 4094681222668589006, guid: c28b4bc6e06f1834a84c9bf9261b1743,
        type: 3}
      propertyPath: m_LocalEulerAnglesHint.z
      value: 0
      objectReference: {fileID: 0}
    - target: {fileID: 9084297613935741446, guid: c28b4bc6e06f1834a84c9bf9261b1743,
        type: 3}
      propertyPath: m_textAlignment
      value: 65535
      objectReference: {fileID: 0}
    - target: {fileID: 9084297613935741446, guid: c28b4bc6e06f1834a84c9bf9261b1743,
        type: 3}
      propertyPath: m_TextStyleHashCode
      value: -1183493901
      objectReference: {fileID: 0}
    - target: {fileID: 9084297613935741446, guid: c28b4bc6e06f1834a84c9bf9261b1743,
        type: 3}
      propertyPath: m_VerticalAlignment
      value: 512
      objectReference: {fileID: 0}
    - target: {fileID: 9084297613935741446, guid: c28b4bc6e06f1834a84c9bf9261b1743,
        type: 3}
      propertyPath: m_HorizontalAlignment
      value: 2
      objectReference: {fileID: 0}
    m_RemovedComponents: []
  m_SourcePrefab: {fileID: 100100000, guid: c28b4bc6e06f1834a84c9bf9261b1743, type: 3}
--- !u!224 &2382909202718761582 stripped
RectTransform:
  m_CorrespondingSourceObject: {fileID: 4094681222668589006, guid: c28b4bc6e06f1834a84c9bf9261b1743,
    type: 3}
  m_PrefabInstance: {fileID: 1856311716687656352}
  m_PrefabAsset: {fileID: 0}
--- !u!114 &5441643793853888772 stripped
MonoBehaviour:
  m_CorrespondingSourceObject: {fileID: 5928544263805504676, guid: c28b4bc6e06f1834a84c9bf9261b1743,
    type: 3}
  m_PrefabInstance: {fileID: 1856311716687656352}
  m_PrefabAsset: {fileID: 0}
  m_GameObject: {fileID: 0}
  m_Enabled: 1
  m_EditorHideFlags: 0
  m_Script: {fileID: 11500000, guid: 7c3c5d4d28c73df48ad352b682a49e88, type: 3}
  m_Name: 
  m_EditorClassIdentifier: 
--- !u!1001 &3284425339143850695
PrefabInstance:
  m_ObjectHideFlags: 0
  serializedVersion: 2
  m_Modification:
    m_TransformParent: {fileID: 2382909202382707813}
    m_Modifications:
    - target: {fileID: 902219912157688140, guid: 82199a0ffe4615243bb8eaa10cc7953c,
        type: 3}
      propertyPath: m_Pivot.x
      value: 0.5
      objectReference: {fileID: 0}
    - target: {fileID: 902219912157688140, guid: 82199a0ffe4615243bb8eaa10cc7953c,
        type: 3}
      propertyPath: m_Pivot.y
      value: 0.5
      objectReference: {fileID: 0}
    - target: {fileID: 902219912157688140, guid: 82199a0ffe4615243bb8eaa10cc7953c,
        type: 3}
      propertyPath: m_RootOrder
      value: 2
      objectReference: {fileID: 0}
    - target: {fileID: 902219912157688140, guid: 82199a0ffe4615243bb8eaa10cc7953c,
        type: 3}
      propertyPath: m_AnchorMax.x
      value: 0.5
      objectReference: {fileID: 0}
    - target: {fileID: 902219912157688140, guid: 82199a0ffe4615243bb8eaa10cc7953c,
        type: 3}
      propertyPath: m_AnchorMax.y
      value: 0.5
      objectReference: {fileID: 0}
    - target: {fileID: 902219912157688140, guid: 82199a0ffe4615243bb8eaa10cc7953c,
        type: 3}
      propertyPath: m_AnchorMin.x
      value: 0.5
      objectReference: {fileID: 0}
    - target: {fileID: 902219912157688140, guid: 82199a0ffe4615243bb8eaa10cc7953c,
        type: 3}
      propertyPath: m_AnchorMin.y
      value: 0.5
      objectReference: {fileID: 0}
    - target: {fileID: 902219912157688140, guid: 82199a0ffe4615243bb8eaa10cc7953c,
        type: 3}
      propertyPath: m_SizeDelta.x
      value: 233
      objectReference: {fileID: 0}
    - target: {fileID: 902219912157688140, guid: 82199a0ffe4615243bb8eaa10cc7953c,
        type: 3}
      propertyPath: m_SizeDelta.y
      value: 104
      objectReference: {fileID: 0}
    - target: {fileID: 902219912157688140, guid: 82199a0ffe4615243bb8eaa10cc7953c,
        type: 3}
      propertyPath: m_LocalPosition.x
      value: 0
      objectReference: {fileID: 0}
    - target: {fileID: 902219912157688140, guid: 82199a0ffe4615243bb8eaa10cc7953c,
        type: 3}
      propertyPath: m_LocalPosition.y
      value: 0
      objectReference: {fileID: 0}
    - target: {fileID: 902219912157688140, guid: 82199a0ffe4615243bb8eaa10cc7953c,
        type: 3}
      propertyPath: m_LocalPosition.z
      value: 0
      objectReference: {fileID: 0}
    - target: {fileID: 902219912157688140, guid: 82199a0ffe4615243bb8eaa10cc7953c,
        type: 3}
      propertyPath: m_LocalRotation.w
      value: 1
      objectReference: {fileID: 0}
    - target: {fileID: 902219912157688140, guid: 82199a0ffe4615243bb8eaa10cc7953c,
        type: 3}
      propertyPath: m_LocalRotation.x
      value: -0
      objectReference: {fileID: 0}
    - target: {fileID: 902219912157688140, guid: 82199a0ffe4615243bb8eaa10cc7953c,
        type: 3}
      propertyPath: m_LocalRotation.y
      value: -0
      objectReference: {fileID: 0}
    - target: {fileID: 902219912157688140, guid: 82199a0ffe4615243bb8eaa10cc7953c,
        type: 3}
      propertyPath: m_LocalRotation.z
      value: -0
      objectReference: {fileID: 0}
    - target: {fileID: 902219912157688140, guid: 82199a0ffe4615243bb8eaa10cc7953c,
        type: 3}
      propertyPath: m_AnchoredPosition.x
      value: 156.00012
      objectReference: {fileID: 0}
    - target: {fileID: 902219912157688140, guid: 82199a0ffe4615243bb8eaa10cc7953c,
        type: 3}
      propertyPath: m_AnchoredPosition.y
      value: -139
      objectReference: {fileID: 0}
    - target: {fileID: 902219912157688140, guid: 82199a0ffe4615243bb8eaa10cc7953c,
        type: 3}
      propertyPath: m_LocalEulerAnglesHint.x
      value: 0
      objectReference: {fileID: 0}
    - target: {fileID: 902219912157688140, guid: 82199a0ffe4615243bb8eaa10cc7953c,
        type: 3}
      propertyPath: m_LocalEulerAnglesHint.y
      value: 0
      objectReference: {fileID: 0}
    - target: {fileID: 902219912157688140, guid: 82199a0ffe4615243bb8eaa10cc7953c,
        type: 3}
      propertyPath: m_LocalEulerAnglesHint.z
      value: 0
      objectReference: {fileID: 0}
    - target: {fileID: 902219912157688141, guid: 82199a0ffe4615243bb8eaa10cc7953c,
        type: 3}
      propertyPath: m_Name
      value: ConfirmCopyGameBtn_Yes
      objectReference: {fileID: 0}
    - target: {fileID: 902219912157688142, guid: 82199a0ffe4615243bb8eaa10cc7953c,
        type: 3}
      propertyPath: m_OnClick.m_PersistentCalls.m_Calls.Array.data[0].m_Target
      value: 
      objectReference: {fileID: 448085137886778510}
    - target: {fileID: 902219912157688142, guid: 82199a0ffe4615243bb8eaa10cc7953c,
        type: 3}
      propertyPath: m_OnClick.m_PersistentCalls.m_Calls.Array.data[1].m_Target
      value: 
      objectReference: {fileID: 0}
    - target: {fileID: 902219912157688142, guid: 82199a0ffe4615243bb8eaa10cc7953c,
        type: 3}
      propertyPath: m_OnClick.m_PersistentCalls.m_Calls.Array.data[0].m_MethodName
      value: ConfirmAction
      objectReference: {fileID: 0}
    - target: {fileID: 7176532055978367468, guid: 82199a0ffe4615243bb8eaa10cc7953c,
        type: 3}
      propertyPath: m_textAlignment
      value: 65535
      objectReference: {fileID: 0}
    - target: {fileID: 7176532055978367468, guid: 82199a0ffe4615243bb8eaa10cc7953c,
        type: 3}
      propertyPath: m_TextStyleHashCode
      value: -1183493901
      objectReference: {fileID: 0}
    - target: {fileID: 7176532055978367468, guid: 82199a0ffe4615243bb8eaa10cc7953c,
        type: 3}
      propertyPath: m_VerticalAlignment
      value: 512
      objectReference: {fileID: 0}
    - target: {fileID: 7176532055978367468, guid: 82199a0ffe4615243bb8eaa10cc7953c,
        type: 3}
      propertyPath: m_HorizontalAlignment
      value: 2
      objectReference: {fileID: 0}
    m_RemovedComponents: []
  m_SourcePrefab: {fileID: 100100000, guid: 82199a0ffe4615243bb8eaa10cc7953c, type: 3}
--- !u!224 &2382909202508512139 stripped
RectTransform:
  m_CorrespondingSourceObject: {fileID: 902219912157688140, guid: 82199a0ffe4615243bb8eaa10cc7953c,
    type: 3}
  m_PrefabInstance: {fileID: 3284425339143850695}
  m_PrefabAsset: {fileID: 0}
--- !u!114 &4237624683138131053 stripped
MonoBehaviour:
  m_CorrespondingSourceObject: {fileID: 1683095305091165866, guid: 82199a0ffe4615243bb8eaa10cc7953c,
    type: 3}
  m_PrefabInstance: {fileID: 3284425339143850695}
  m_PrefabAsset: {fileID: 0}
  m_GameObject: {fileID: 0}
  m_Enabled: 1
  m_EditorHideFlags: 0
  m_Script: {fileID: 11500000, guid: 7c3c5d4d28c73df48ad352b682a49e88, type: 3}
  m_Name: 
  m_EditorClassIdentifier: 
