%YAML 1.1
%TAG !u! tag:unity3d.com,2011:
--- !u!1001 &288629875988524268
PrefabInstance:
  m_ObjectHideFlags: 0
  serializedVersion: 2
  m_Modification:
    m_TransformParent: {fileID: 0}
    m_Modifications:
    - target: {fileID: -4893917323880431361, guid: a2eb551b4be881845814a2026ada1199,
        type: 3}
      propertyPath: windowTitle
      value: Abilities
      objectReference: {fileID: 0}
    - target: {fileID: -4893917323880431361, guid: a2eb551b4be881845814a2026ada1199,
        type: 3}
      propertyPath: contentGameObject
      value: 
      objectReference: {fileID: 463661126732628883}
    - target: {fileID: 5515843363502165378, guid: a2eb551b4be881845814a2026ada1199,
        type: 3}
      propertyPath: m_Name
      value: AbilityBookWindow
      objectReference: {fileID: 0}
    - target: {fileID: 5515843363502165379, guid: a2eb551b4be881845814a2026ada1199,
        type: 3}
      propertyPath: m_RootOrder
      value: 0
      objectReference: {fileID: 0}
    - target: {fileID: 5515843363502165379, guid: a2eb551b4be881845814a2026ada1199,
        type: 3}
      propertyPath: m_SizeDelta.x
      value: 480
      objectReference: {fileID: 0}
    - target: {fileID: 5515843363502165379, guid: a2eb551b4be881845814a2026ada1199,
        type: 3}
      propertyPath: m_SizeDelta.y
      value: 580
      objectReference: {fileID: 0}
    - target: {fileID: 5515843363502165379, guid: a2eb551b4be881845814a2026ada1199,
        type: 3}
      propertyPath: m_LocalPosition.x
      value: 0
      objectReference: {fileID: 0}
    - target: {fileID: 5515843363502165379, guid: a2eb551b4be881845814a2026ada1199,
        type: 3}
      propertyPath: m_LocalPosition.y
      value: 0
      objectReference: {fileID: 0}
    - target: {fileID: 5515843363502165379, guid: a2eb551b4be881845814a2026ada1199,
        type: 3}
      propertyPath: m_LocalPosition.z
      value: 0
      objectReference: {fileID: 0}
    - target: {fileID: 5515843363502165379, guid: a2eb551b4be881845814a2026ada1199,
        type: 3}
      propertyPath: m_LocalEulerAnglesHint.x
      value: 0
      objectReference: {fileID: 0}
    - target: {fileID: 5515843363502165379, guid: a2eb551b4be881845814a2026ada1199,
        type: 3}
      propertyPath: m_LocalEulerAnglesHint.y
      value: 0
      objectReference: {fileID: 0}
    - target: {fileID: 5515843363502165379, guid: a2eb551b4be881845814a2026ada1199,
        type: 3}
      propertyPath: m_LocalEulerAnglesHint.z
      value: 0
      objectReference: {fileID: 0}
    m_RemovedComponents: []
  m_SourcePrefab: {fileID: 100100000, guid: a2eb551b4be881845814a2026ada1199, type: 3}
--- !u!224 &5227937028848080904 stripped
RectTransform:
  m_CorrespondingSourceObject: {fileID: 5515843363620107492, guid: a2eb551b4be881845814a2026ada1199,
    type: 3}
  m_PrefabInstance: {fileID: 288629875988524268}
  m_PrefabAsset: {fileID: 0}
--- !u!1001 &9004840576981269782
PrefabInstance:
  m_ObjectHideFlags: 0
  serializedVersion: 2
  m_Modification:
    m_TransformParent: {fileID: 5227937028848080904}
    m_Modifications:
    - target: {fileID: 2012149035948105343, guid: 16b43694214a0e94b928f62f0c671c36,
        type: 3}
      propertyPath: m_SizeDelta.x
      value: 0
      objectReference: {fileID: 0}
    - target: {fileID: 2012149035948105343, guid: 16b43694214a0e94b928f62f0c671c36,
        type: 3}
      propertyPath: m_SizeDelta.y
      value: 0
      objectReference: {fileID: 0}
    - target: {fileID: 2688011358738526962, guid: 16b43694214a0e94b928f62f0c671c36,
        type: 3}
      propertyPath: m_SizeDelta.x
      value: 0
      objectReference: {fileID: 0}
    - target: {fileID: 2688011358738526962, guid: 16b43694214a0e94b928f62f0c671c36,
        type: 3}
      propertyPath: m_SizeDelta.y
      value: 0
      objectReference: {fileID: 0}
    - target: {fileID: 3761032553379053306, guid: 16b43694214a0e94b928f62f0c671c36,
        type: 3}
      propertyPath: m_SizeDelta.x
      value: 0
      objectReference: {fileID: 0}
    - target: {fileID: 3761032553379053306, guid: 16b43694214a0e94b928f62f0c671c36,
        type: 3}
      propertyPath: m_SizeDelta.y
      value: 0
      objectReference: {fileID: 0}
    - target: {fileID: 3987135508367370354, guid: 16b43694214a0e94b928f62f0c671c36,
        type: 3}
      propertyPath: m_SizeDelta.x
      value: 0
      objectReference: {fileID: 0}
    - target: {fileID: 3987135508367370354, guid: 16b43694214a0e94b928f62f0c671c36,
        type: 3}
      propertyPath: m_SizeDelta.y
      value: 0
      objectReference: {fileID: 0}
    - target: {fileID: 4604549306499773203, guid: 16b43694214a0e94b928f62f0c671c36,
        type: 3}
      propertyPath: m_SizeDelta.x
      value: 0
      objectReference: {fileID: 0}
    - target: {fileID: 4604549306499773203, guid: 16b43694214a0e94b928f62f0c671c36,
        type: 3}
      propertyPath: m_SizeDelta.y
      value: 0
      objectReference: {fileID: 0}
    - target: {fileID: 4639473958168833118, guid: 16b43694214a0e94b928f62f0c671c36,
        type: 3}
      propertyPath: m_SizeDelta.x
      value: 0
      objectReference: {fileID: 0}
    - target: {fileID: 4639473958168833118, guid: 16b43694214a0e94b928f62f0c671c36,
        type: 3}
      propertyPath: m_SizeDelta.y
      value: 0
      objectReference: {fileID: 0}
    - target: {fileID: 5654126799367141497, guid: 16b43694214a0e94b928f62f0c671c36,
        type: 3}
      propertyPath: m_SizeDelta.x
      value: 0
      objectReference: {fileID: 0}
    - target: {fileID: 5654126799367141497, guid: 16b43694214a0e94b928f62f0c671c36,
        type: 3}
      propertyPath: m_SizeDelta.y
      value: 0
      objectReference: {fileID: 0}
    - target: {fileID: 6385489400871715674, guid: 16b43694214a0e94b928f62f0c671c36,
        type: 3}
      propertyPath: m_SizeDelta.x
      value: 0
      objectReference: {fileID: 0}
    - target: {fileID: 6385489400871715674, guid: 16b43694214a0e94b928f62f0c671c36,
        type: 3}
      propertyPath: m_SizeDelta.y
      value: 0
      objectReference: {fileID: 0}
    - target: {fileID: 8648811820481141016, guid: 16b43694214a0e94b928f62f0c671c36,
        type: 3}
      propertyPath: m_SizeDelta.x
      value: 0
      objectReference: {fileID: 0}
    - target: {fileID: 8648811820481141016, guid: 16b43694214a0e94b928f62f0c671c36,
        type: 3}
      propertyPath: m_SizeDelta.y
      value: 0
      objectReference: {fileID: 0}
    - target: {fileID: 8834056534942269060, guid: 16b43694214a0e94b928f62f0c671c36,
        type: 3}
      propertyPath: m_RootOrder
      value: 0
      objectReference: {fileID: 0}
    - target: {fileID: 8834056534942269060, guid: 16b43694214a0e94b928f62f0c671c36,
        type: 3}
      propertyPath: m_LocalPosition.x
      value: 0
      objectReference: {fileID: 0}
    - target: {fileID: 8834056534942269060, guid: 16b43694214a0e94b928f62f0c671c36,
        type: 3}
      propertyPath: m_LocalPosition.y
      value: 0
      objectReference: {fileID: 0}
    - target: {fileID: 8834056534942269060, guid: 16b43694214a0e94b928f62f0c671c36,
        type: 3}
      propertyPath: m_LocalPosition.z
      value: 0
      objectReference: {fileID: 0}
    - target: {fileID: 8834056534942269060, guid: 16b43694214a0e94b928f62f0c671c36,
        type: 3}
      propertyPath: m_LocalEulerAnglesHint.x
      value: 0
      objectReference: {fileID: 0}
    - target: {fileID: 8834056534942269060, guid: 16b43694214a0e94b928f62f0c671c36,
        type: 3}
      propertyPath: m_LocalEulerAnglesHint.y
      value: 0
      objectReference: {fileID: 0}
    - target: {fileID: 8834056534942269060, guid: 16b43694214a0e94b928f62f0c671c36,
        type: 3}
      propertyPath: m_LocalEulerAnglesHint.z
      value: 0
      objectReference: {fileID: 0}
    - target: {fileID: 8834056534942269061, guid: 16b43694214a0e94b928f62f0c671c36,
        type: 3}
      propertyPath: m_Name
      value: AbilityBookPanel
      objectReference: {fileID: 0}
    - target: {fileID: 8844372231876861645, guid: 16b43694214a0e94b928f62f0c671c36,
        type: 3}
      propertyPath: m_SizeDelta.x
      value: 0
      objectReference: {fileID: 0}
    - target: {fileID: 8844372231876861645, guid: 16b43694214a0e94b928f62f0c671c36,
        type: 3}
      propertyPath: m_SizeDelta.y
      value: 0
      objectReference: {fileID: 0}
    m_RemovedComponents: []
  m_SourcePrefab: {fileID: 100100000, guid: 16b43694214a0e94b928f62f0c671c36, type: 3}
--- !u!1 &463661126732628883 stripped
GameObject:
  m_CorrespondingSourceObject: {fileID: 8834056534942269061, guid: 16b43694214a0e94b928f62f0c671c36,
    type: 3}
  m_PrefabInstance: {fileID: 9004840576981269782}
  m_PrefabAsset: {fileID: 0}
