%YAML 1.1
%TAG !u! tag:unity3d.com,2011:
--- !u!114 &11400000
MonoBehaviour:
  m_ObjectHideFlags: 0
  m_CorrespondingSourceObject: {fileID: 0}
  m_PrefabInstance: {fileID: 0}
  m_PrefabAsset: {fileID: 0}
  m_GameObject: {fileID: 0}
  m_Enabled: 1
  m_EditorHideFlags: 0
  m_Script: {fileID: 11500000, guid: 4e31818c35d6ab14fbf88410e7e18453, type: 3}
  m_Name: DefaultUMAPlayerUnit
  m_EditorClassIdentifier: 
  resourceName: Default UMA Player
  displayName: 
  icon: {fileID: 21300000, guid: 9176b48a2857c364280b4f5b9d620852, type: 3}
  iconBackgroundImage: {fileID: 0}
  description: The default UMA player unit configured in the engine.
  useRegionalDescription: 0
  resourceDescriptionProfile: 
  automaticPrefabProfile: 0
  prefabProfileName: 
  useInlinePrefabProps: 1
  unitPrefabProps:
    unitPrefab: {fileID: 2692339740015506113, guid: ba09f14eb0109ba459f4520b82c3fadc,
      type: 3}
    modelPrefab: {fileID: 2692339740015506113, guid: 9396e25e38decac4b8b80eb1f92213e2,
      type: 3}
    animationProfileName: 
    useInlineAnimationProps: 0
    animationProps:
      useRootMotion: 0
      suppressAdjustAnimatorSpeed: 0
      attackClips: []
      castClips: []
      takeDamageClips: []
      idleClip: {fileID: 0}
      jumpClip: {fileID: 0}
      fallClip: {fileID: 0}
      landClip: {fileID: 0}
      moveForwardClip: {fileID: 0}
      moveForwardFastClip: {fileID: 0}
      moveBackClip: {fileID: 0}
      moveBackFastClip: {fileID: 0}
      turnLeftClip: {fileID: 0}
      turnRightClip: {fileID: 0}
      strafeLeftClip: {fileID: 0}
      jogStrafeLeftClip: {fileID: 0}
      strafeRightClip: {fileID: 0}
      jogStrafeRightClip: {fileID: 0}
      strafeForwardLeftClip: {fileID: 0}
      jogStrafeForwardLeftClip: {fileID: 0}
      strafeForwardRightClip: {fileID: 0}
      jogStrafeForwardRightClip: {fileID: 0}
      strafeBackLeftClip: {fileID: 0}
      jogStrafeBackLeftClip: {fileID: 0}
      strafeBackRightClip: {fileID: 0}
      jogStrafeBackRightClip: {fileID: 0}
      stunnedClip: {fileID: 0}
      fullCombatMirror: 0
      combatIdleMirror: 0
      combatIdleClip: {fileID: 0}
      combatJumpMirror: 0
      combatJumpClip: {fileID: 0}
      combatFallMirror: 0
      combatFallClip: {fileID: 0}
      combatLandMirror: 0
      combatLandClip: {fileID: 0}
      combatMoveForwardMirror: 0
      combatMoveForwardClip: {fileID: 0}
      combatMoveForwardFastMirror: 0
      combatMoveForwardFastClip: {fileID: 0}
      combatMoveBackMirror: 0
      combatMoveBackClip: {fileID: 0}
      combatMoveBackFastMirror: 0
      combatMoveBackFastClip: {fileID: 0}
      combatTurnLeftMirror: 0
      combatTurnLeftClip: {fileID: 0}
      combatTurnRightMirror: 0
      combatTurnRightClip: {fileID: 0}
      combatStrafeLeftMirror: 0
      combatStrafeLeftClip: {fileID: 0}
      combatJogStrafeLeftMirror: 0
      combatJogStrafeLeftClip: {fileID: 0}
      combatStrafeRightMirror: 0
      combatStrafeRightClip: {fileID: 0}
      combatJogStrafeRightMirror: 0
      combatJogStrafeRightClip: {fileID: 0}
      combatStrafeForwardLeftMirror: 0
      combatStrafeForwardLeftClip: {fileID: 0}
      combatJogStrafeForwardLeftMirror: 0
      combatJogStrafeForwardLeftClip: {fileID: 0}
      combatStrafeForwardRightMirror: 0
      combatStrafeForwardRightClip: {fileID: 0}
      combatJogStrafeForwardRightMirror: 0
      combatJogStrafeForwardRightClip: {fileID: 0}
      combatStrafeBackLeftMirror: 0
      combatStrafeBackLeftClip: {fileID: 0}
      combatJogStrafeBackLeftMirror: 0
      combatJogStrafeBackLeftClip: {fileID: 0}
      combatStrafeBackRightMirror: 0
      combatStrafeBackRightClip: {fileID: 0}
      combatJogStrafeBackRightMirror: 0
      combatJogStrafeBackRightClip: {fileID: 0}
      combatStunnedMirror: 0
      combatStunnedClip: {fileID: 0}
      deathClip: {fileID: 0}
      reviveClip: {fileID: 0}
      levitatedClip: {fileID: 0}
      swimIdleClip: {fileID: 0}
      swimMoveClip: {fileID: 0}
      flyIdleClip: {fileID: 0}
      flyMoveClip: {fileID: 0}
    rotateModel: 0
    namePlateProps:
      displayName: 
      suppressNamePlate: 0
      suppressFaction: 1
      overrideNameplatePosition: 0
      namePlatePosition: {x: 0, y: 0, z: 0}
      unitFrameTarget: Head
      unitFrameCameraLookOffset: {x: 0, y: 0, z: 0}
      unitFrameCameraPositionOffset: {x: 0, y: 0, z: 0.66}
      unitPreviewTarget: 
      unitPreviewCameraLookOffset: {x: 0, y: 1, z: 0}
      unitPreviewCameraPositionOffset: {x: 0, y: 1, z: 2.5}
    position: {x: 0, y: 0, z: 0}
    rotationIsGlobal: 0
    rotation: {x: 0, y: 0, z: 0}
    scale: {x: 1, y: 1, z: 1}
    targetBone: 
    attachmentProfileName: UMA
    floatHeight: 1.4
    addFloatHeightToTransform: 0
    floatTransform: Spine1
  isUMAUnit: 1
  isPet: 0
  flightCapable: 0
  characterName: 
  title: 
  factionName: 
  unitTypeName: 
  characterRaceName: 
  characterClassName: 
  classSpecializationName: 
  spawnDead: 0
  preventAutoDespawn: 0
  defaultToughness: 
  capabilities:
    abilityNames: []
    traitNames: []
    armorClassList: []
    weaponSkills: []
  isAggressive: 1
  aggroRadius: 20
  automaticCombatStrategy: 0
  combatStrategyName: 
  primaryStats: []
  powerResources: []
  useProviderEquipment: 0
  equipmentNameList: []
  isMobile: 1
  playOnFootstep: 0
  movementAudioProfileNames:
  - Default Footstep Loop
  useInlinePatrol: 0
  patrolConfig:
    autoStart: 0
    destinationList: []
    useTags: 0
    destinationTagList: []
    randomDestinations: 0
    loopDestinations: 1
    despawnOnCompletion: 0
    maxDestinations: 0
    maxDistanceFromSpawnPoint: 1
    destinationPauseTime: 0
    movementSpeed: 0
    savePositionAtDestination: 0
  patrolNames: []
  behaviorConfig:
    interactionPanelTitle: 
    interactionPanelImage: {fileID: 0}
    namePlateImage: {fileID: 0}
    prerequisiteConditions: []
    behaviorNames: []
  interactionMaxRange: 3
  lootableCharacter:
    interactionPanelTitle: 
    interactionPanelImage: {fileID: 0}
    namePlateImage: {fileID: 0}
    prerequisiteConditions: []
    automaticCurrency: 0
    lootTableNames: []
  dialogConfig:
    interactionPanelTitle: 
    interactionPanelImage: {fileID: 0}
    namePlateImage: {fileID: 0}
    prerequisiteConditions: []
    dialogNames: []
  questGiverConfig:
    interactionPanelTitle: 
    interactionPanelImage: {fileID: 0}
    namePlateImage: {fileID: 0}
    prerequisiteConditions: []
    quests: []
    questGiverProfileNames: []
  vendorConfig:
    interactionPanelTitle: 
    interactionPanelImage: {fileID: 0}
    namePlateImage: {fileID: 0}
    prerequisiteConditions: []
    vendorCollectionNames: []
  interactableOptions: []
  persistObjectPosition: 0
  saveOnLevelUnload: 0
  saveOnGameSave: 0
  overwriteUnitUUID: 0
  m_UUID: b67cb72f-ac58-4ad2-95f0-a825d48806cb
