%YAML 1.1
%TAG !u! tag:unity3d.com,2011:
--- !u!114 &11400000
MonoBehaviour:
  m_ObjectHideFlags: 0
  m_CorrespondingSourceObject: {fileID: 0}
  m_PrefabInstance: {fileID: 0}
  m_PrefabAsset: {fileID: 0}
  m_GameObject: {fileID: 0}
  m_Enabled: 1
  m_EditorHideFlags: 0
  m_Script: {fileID: 11500000, guid: 0b4eca1291e60f148801568f2a83a06b, type: 3}
  m_Name: BetterPlateHelmUMARecipe
  m_EditorClassIdentifier: 
  resourceName: Better Plate Helm
  displayName: 
  icon: {fileID: 0}
  iconBackgroundImage: {fileID: 0}
  description: 
  useRegionalDescription: 0
  resourceDescriptionProfile: 
  uMARecipes:
  - {fileID: 11400000, guid: 69901e08fcc89cc51ae6160746331784, type: 2}
  - {fileID: 11400000, guid: 4a3ca8dc8a0a0d92ea4d47d7d38416dd, type: 2}
  sharedColors:
  - sharedColorname: Head Equipment Color 1
    color: {r: 0, g: 1, b: 0, a: 1}
