%YAML 1.1
%TAG !u! tag:unity3d.com,2011:
--- !u!114 &11400000
MonoBehaviour:
  m_ObjectHideFlags: 0
  m_CorrespondingSourceObject: {fileID: 0}
  m_PrefabInstance: {fileID: 0}
  m_PrefabAsset: {fileID: 0}
  m_GameObject: {fileID: 0}
  m_Enabled: 1
  m_EditorHideFlags: 0
  m_Script: {fileID: 11500000, guid: 0b4eca1291e60f148801568f2a83a06b, type: 3}
  m_Name: PlateGauntletsUMARecipe
  m_EditorClassIdentifier: 
  resourceName: Plate Gauntlets
  displayName: 
  icon: {fileID: 0}
  iconBackgroundImage: {fileID: 0}
  description: 
  useRegionalDescription: 0
  resourceDescriptionProfile: 
  uMARecipes:
  - {fileID: 11400000, guid: 757c42a47f5810183a5f59843c860b13, type: 2}
  - {fileID: 11400000, guid: 8d775c7cbbacf4684a669aa6ed889680, type: 2}
  sharedColors: []
